txn:
  type: interval
  before: 
  after: {"start":"20191122T140202Z","tags":["tally","welcome-screen"]}
txn:
  type: interval
  before: {"start":"20191122T140202Z","tags":["tally","welcome-screen"]}
  after: 
txn:
  type: interval
  before: 
  after: {"start":"20191122T140202Z","end":"20191122T142915Z","tags":["tally","welcome-screen"]}
txn:
  type: interval
  before: 
  after: {"start":"20191122T144231Z","tags":["earnest","qa-support"]}
txn:
  type: interval
  before: {"start":"20191122T144231Z","tags":["earnest","qa-support"]}
  after: 
txn:
  type: interval
  before: 
  after: {"start":"20191122T144231Z","end":"20191122T152820Z","tags":["earnest","qa-support"]}
txn:
  type: interval
  before: 
  after: {"start":"20191122T152855Z","tags":["tally","welcome-screen"]}
txn:
  type: interval
  before: {"start":"20191122T152855Z","tags":["tally","welcome-screen"]}
  after: 
txn:
  type: interval
  before: 
  after: {"start":"20191122T152855Z","end":"20191122T161318Z","tags":["tally","welcome-screen"]}
txn:
  type: interval
  before: 
  after: {"start":"20191122T162254Z"}
txn:
  type: interval
  before: {"start":"20191122T162254Z"}
  after: 
txn:
  type: interval
  before: 
  after: {"start":"20191122T162254Z","end":"20191122T162301Z"}
txn:
  type: interval
  before: 
  after: {"start":"20191122T162308Z","tags":["tally","welcome-screen"]}
txn:
  type: interval
  before: {"start":"20191122T162308Z","tags":["tally","welcome-screen"]}
  after: 
txn:
  type: interval
  before: 
  after: {"start":"20191122T162308Z","end":"20191122T171719Z","tags":["tally","welcome-screen"]}
txn:
  type: interval
  before: 
  after: {"start":"20191122T191609Z","tags":["tally","welcome-screen"]}
txn:
  type: interval
  before: {"start":"20191122T191609Z","tags":["tally","welcome-screen"]}
  after: 
txn:
  type: interval
  before: 
  after: {"start":"20191122T191609Z","end":"20191122T194341Z","tags":["tally","welcome-screen"]}
txn:
  type: interval
  before: 
  after: {"start":"20191122T201639Z","tags":["tally","welcome-screen"]}
txn:
  type: interval
  before: {"start":"20191122T201639Z","tags":["tally","welcome-screen"]}
  after: 
txn:
  type: interval
  before: 
  after: {"start":"20191122T201639Z","end":"20191122T211750Z","tags":["tally","welcome-screen"]}
txn:
  type: interval
  before: 
  after: {"start":"20191122T211808Z","tags":["earnest"]}
txn:
  type: interval
  before: {"start":"20191122T211808Z","tags":["earnest"]}
  after: 
txn:
  type: interval
  before: 
  after: {"start":"20191122T211808Z","end":"20191122T214113Z","tags":["earnest"]}
txn:
  type: interval
  before: 
  after: {"start":"20191125T131713Z","tags":["tally","welcome-screen"]}
txn:
  type: interval
  before: {"start":"20191125T131713Z","tags":["tally","welcome-screen"]}
  after: 
txn:
  type: interval
  before: 
  after: {"start":"20191125T131713Z","end":"20191125T140826Z","tags":["tally","welcome-screen"]}
txn:
  type: interval
  before: 
  after: {"start":"20191125T205834Z","tags":["earnest","slrpl-789"]}
txn:
  type: interval
  before: {"start":"20191125T205834Z","tags":["earnest","slrpl-789"]}
  after: 
txn:
  type: interval
  before: 
  after: {"start":"20191125T205834Z","end":"20191126T125631Z","tags":["earnest","slrpl-789"]}
txn:
  type: interval
  before: 
  after: {"start":"20191126T125631Z","tags":["tally","welcome-screen"]}
txn:
  type: interval
  before: {"start":"20191126T125631Z","tags":["tally","welcome-screen"]}
  after: 
txn:
  type: interval
  before: 
  after: {"start":"20191126T125631Z","end":"20191126T145112Z","tags":["tally","welcome-screen"]}
txn:
  type: interval
  before: 
  after: {"start":"20191126T145521Z","tags":["earnest","support"]}
txn:
  type: interval
  before: {"start":"20191126T145521Z","tags":["earnest","support"]}
  after: 
txn:
  type: interval
  before: 
  after: {"start":"20191126T145521Z","end":"20191126T161332Z","tags":["earnest","support"]}
txn:
  type: interval
  before: 
  after: {"start":"20191126T161340Z","tags":["earnest","slrpl-789"]}
txn:
  type: interval
  before: {"start":"20191126T161340Z","tags":["earnest","slrpl-789"]}
  after: 
  type: interval
  before: {"start":"20191201T050000Z","tags":["earnest","slrpl-789"]}
  after: 
txn:
  type: interval
  before: 
  after: {"start":"20191126T161340Z","end":"20191201T050000Z","tags":["earnest","slrpl-789"]}
  type: interval
  before: 
  after: {"start":"20191201T050000Z","end":"20191203T213121Z","tags":["earnest","slrpl-789"]}
txn:
  type: interval
  before: 
  after: {"start":"20200114T123903Z","tags":["Review style PR for Greg","pegasus","sn"]}
txn:
  type: interval
  before: {"start":"20200114T123903Z","tags":["Review style PR for Greg","pegasus","sn"]}
  after: 
txn:
  type: interval
  before: 
  after: {"start":"20200114T123903Z","end":"20200114T152754Z","tags":["Review style PR for Greg","pegasus","sn"]}
txn:
  type: interval
  before: 
  after: {"start":"20200114T152804Z","tags":["SLRPL-932: Fix email failures","earnest"]}
txn:
  type: interval
  before: {"start":"20200114T152804Z","tags":["SLRPL-932: Fix email failures","earnest"]}
  after: 
txn:
  type: interval
  before: 
  after: {"start":"20200114T152804Z","end":"20200114T153213Z","tags":["SLRPL-932: Fix email failures","earnest"]}
txn:
  type: interval
  before: 
  after: {"start":"20200114T153311Z","tags":["Hook up gameboard model to mock API","pegasus","sn"]}
txn:
  type: interval
  before: {"start":"20200114T153311Z","tags":["Hook up gameboard model to mock API","pegasus","sn"]}
  after: 
txn:
  type: interval
  before: 
  after: {"start":"20200114T153311Z","end":"20200114T161154Z","tags":["Hook up gameboard model to mock API","pegasus","sn"]}
txn:
  type: interval
  before: 
  after: {"start":"20200114T161158Z","tags":["SLRPL-949: Regenerate Loan Agreement","earnest"]}
txn:
  type: interval
  before: {"start":"20200114T161158Z","tags":["SLRPL-949: Regenerate Loan Agreement","earnest"]}
  after: 
txn:
  type: interval
  before: 
  after: {"start":"20200114T161158Z","end":"20200114T163855Z","tags":["SLRPL-949: Regenerate Loan Agreement","earnest"]}
txn:
  type: interval
  before: 
  after: {"start":"20200114T165614Z","tags":["SLRPL-949: Regenerate Loan Agreement","earnest"]}
txn:
  type: interval
  before: {"start":"20200114T165614Z","tags":["SLRPL-949: Regenerate Loan Agreement","earnest"]}
  after: 
txn:
  type: interval
  before: 
  after: {"start":"20200114T165614Z","end":"20200114T171549Z","tags":["SLRPL-949: Regenerate Loan Agreement","earnest"]}
txn:
  type: interval
  before: 
  after: {"start":"20200114T173803Z","tags":["SLRPL-932: Fix email failures","earnest"]}
txn:
  type: interval
  before: {"start":"20200114T173803Z","tags":["SLRPL-932: Fix email failures","earnest"]}
  after: 
txn:
  type: interval
  before: 
  after: {"start":"20200114T173803Z","end":"20200114T201336Z","tags":["SLRPL-932: Fix email failures","earnest"]}
txn:
  type: interval
  before: 
  after: {"start":"20200114T201336Z","tags":["Review user stories document for Greg","pegasus","sn"]}
txn:
  type: interval
  before: {"start":"20200114T201336Z","tags":["Review user stories document for Greg","pegasus","sn"]}
  after: 
txn:
  type: interval
  before: 
  after: {"start":"20200114T201336Z","end":"20200114T204141Z","tags":["Review user stories document for Greg","pegasus","sn"]}
txn:
  type: interval
  before: 
  after: {"start":"20200114T204220Z","tags":["Figure out why LCMS smoke tests are borked.","earnest"]}
txn:
  type: interval
  before: {"start":"20200114T204220Z","tags":["Figure out why LCMS smoke tests are borked.","earnest"]}
  after: 
txn:
  type: interval
  before: 
  after: {"start":"20200114T204220Z","end":"20200115T130051Z","tags":["Figure out why LCMS smoke tests are borked.","earnest"]}
txn:
  type: interval
  before: 
  after: {"start":"20200115T130103Z","tags":["Hook up gameboard model to mock API","pegasus","sn"]}
txn:
  type: interval
  before: {"start":"20200115T130103Z","tags":["Hook up gameboard model to mock API","pegasus","sn"]}
  after: 
txn:
  type: interval
  before: 
  after: {"start":"20200115T130103Z","end":"20200116T130024Z","tags":["Hook up gameboard model to mock API","pegasus","sn"]}
txn:
  type: interval
  before: 
  after: {"start":"20200116T130024Z","tags":["Research how subscriptions work","pegasus","sn"]}
txn:
  type: interval
  before: {"start":"20200116T130024Z","tags":["Research how subscriptions work","pegasus","sn"]}
  after: 
txn:
  type: interval
  before: 
  after: {"start":"20200116T130024Z","end":"20200116T132051Z","tags":["Research how subscriptions work","pegasus","sn"]}
txn:
  type: interval
  before: 
  after: {"start":"20200116T132107Z","tags":["Look into Apollo CLI for codegen","pegasus","sn"]}
txn:
  type: interval
  before: {"start":"20200116T132107Z","tags":["Look into Apollo CLI for codegen","pegasus","sn"]}
  after: 
txn:
  type: interval
  before: 
  after: {"start":"20200116T132107Z","end":"20200116T141233Z","tags":["Look into Apollo CLI for codegen","pegasus","sn"]}
txn:
  type: interval
  before: 
  after: {"start":"20200116T141254Z","tags":["Review DB architecture proposal","pegasus","sn"]}
txn:
  type: interval
  before: {"start":"20200116T141254Z","tags":["Review DB architecture proposal","pegasus","sn"]}
  after: 
txn:
  type: interval
  before: 
  after: {"start":"20200116T141254Z","end":"20200116T143858Z","tags":["Review DB architecture proposal","pegasus","sn"]}
txn:
  type: interval
  before: 
  after: {"start":"20200116T152943Z","tags":["Hook up gameboard model to mock API","pegasus","sn"]}
txn:
  type: interval
  before: {"start":"20200116T152943Z","tags":["Hook up gameboard model to mock API","pegasus","sn"]}
  after: 
txn:
  type: interval
  before: 
  after: {"start":"20200116T152943Z","end":"20200116T162017Z","tags":["Hook up gameboard model to mock API","pegasus","sn"]}
txn:
  type: interval
  before: 
  after: {"start":"20200116T162017Z","tags":["SLRPL-950: Unable to Snapshot","earnest"]}
txn:
  type: interval
  before: {"start":"20200116T162017Z","tags":["SLRPL-950: Unable to Snapshot","earnest"]}
  after: 
txn:
  type: interval
  before: 
  after: {"start":"20200116T162017Z","end":"20200116T162040Z","tags":["SLRPL-950: Unable to Snapshot","earnest"]}
txn:
  type: interval
  before: 
  after: {"start":"20200116T163727Z","tags":["SLRPL-950: Unable to Snapshot","earnest"]}
txn:
  type: interval
  before: {"start":"20200116T163727Z","tags":["SLRPL-950: Unable to Snapshot","earnest"]}
  after: 
txn:
  type: interval
  before: 
  after: {"start":"20200116T163727Z","end":"20200116T163920Z","tags":["SLRPL-950: Unable to Snapshot","earnest"]}
txn:
  type: interval
  before: 
  after: {"start":"20200116T163933Z","tags":["SLRPL-951: Unable to snapshot","earnest"]}
txn:
  type: interval
  before: {"start":"20200116T163933Z","tags":["SLRPL-951: Unable to snapshot","earnest"]}
  after: 
txn:
  type: interval
  before: 
  after: {"start":"20200116T163933Z","end":"20200116T183049Z","tags":["SLRPL-951: Unable to snapshot","earnest"]}
txn:
  type: interval
  before: 
  after: {"start":"20200116T183118Z","tags":["Review DB architecture proposal","pegasus","sn"]}
txn:
  type: interval
  before: {"start":"20200116T183118Z","tags":["Review DB architecture proposal","pegasus","sn"]}
  after: 
txn:
  type: interval
  before: 
  after: {"start":"20200116T183118Z","end":"20200116T201514Z","tags":["Review DB architecture proposal","pegasus","sn"]}
txn:
  type: interval
  before: 
  after: {"start":"20200116T204745Z","tags":["Hook up gameboard model to mock API","pegasus","sn"]}
txn:
  type: interval
  before: {"start":"20200116T204745Z","tags":["Hook up gameboard model to mock API","pegasus","sn"]}
  after: 
txn:
  type: interval
  before: 
  after: {"start":"20200116T204745Z","end":"20200120T125011Z","tags":["Hook up gameboard model to mock API","pegasus","sn"]}
txn:
  type: interval
  before: 
  after: {"start":"20200120T125011Z","tags":["Review staging API hook-up PR for Lail","pegasus","sn"]}
txn:
  type: interval
  before: {"start":"20200120T125011Z","tags":["Review staging API hook-up PR for Lail","pegasus","sn"]}
  after: 
txn:
  type: interval
  before: 
  after: {"start":"20200120T125011Z","end":"20200120T134435Z","tags":["Review staging API hook-up PR for Lail","pegasus","sn"]}
txn:
  type: interval
  before: 
  after: {"start":"20200120T134438Z","tags":["Hook up gameboard model to mock API","pegasus","sn"]}
txn:
  type: interval
  before: {"start":"20200120T134438Z","tags":["Hook up gameboard model to mock API","pegasus","sn"]}
  after: 
txn:
  type: interval
  before: 
  after: {"start":"20200120T134438Z","end":"20200120T143600Z","tags":["Hook up gameboard model to mock API","pegasus","sn"]}
txn:
  type: interval
  before: 
  after: {"start":"20200120T143629Z","tags":["PR reviews","pegasus","sn"]}
txn:
  type: interval
  before: {"start":"20200120T143629Z","tags":["PR reviews","pegasus","sn"]}
  after: 
txn:
  type: interval
  before: 
  after: {"start":"20200120T143629Z","end":"20200120T155049Z","tags":["PR reviews","pegasus","sn"]}
txn:
  type: interval
  before: 
  after: {"start":"20200120T155116Z","tags":["Add sporting event models","pegasus","sn"]}
txn:
  type: interval
  before: {"start":"20200120T155116Z","tags":["Add sporting event models","pegasus","sn"]}
  after: 
txn:
  type: interval
  before: 
  after: {"start":"20200120T155116Z","end":"20200120T160146Z","tags":["Add sporting event models","pegasus","sn"]}
txn:
  type: interval
  before: 
  after: {"start":"20200120T164825Z","tags":["Add sporting event models","pegasus","sn"]}
txn:
  type: interval
  before: {"start":"20200120T164825Z","tags":["Add sporting event models","pegasus","sn"]}
  after: 
txn:
  type: interval
  before: 
  after: {"start":"20200120T164825Z","end":"20200120T190236Z","tags":["Add sporting event models","pegasus","sn"]}
txn:
  type: interval
  before: 
  after: {"start":"20200120T201834Z","tags":["Add sporting event models","pegasus","sn"]}
txn:
  type: interval
  before: {"start":"20200120T201834Z","tags":["Add sporting event models","pegasus","sn"]}
  after: 
txn:
  type: interval
  before: 
  after: {"start":"20200120T201834Z","end":"20200121T200412Z","tags":["Add sporting event models","pegasus","sn"]}
txn:
  type: interval
  before: 
  after: {"start":"20200121T200412Z","tags":["Attempt to mock subscriptions","pegasus","sn"]}
txn:
  type: interval
  before: {"start":"20200121T200412Z","tags":["Attempt to mock subscriptions","pegasus","sn"]}
  after: 
txn:
  type: interval
  before: 
  after: {"start":"20200121T200412Z","end":"20200122T120551Z","tags":["Attempt to mock subscriptions","pegasus","sn"]}
txn:
  type: interval
  before: 
  after: {"start":"20200122T120625Z","tags":["Checking timewarrior data format","test"]}
txn:
  type: interval
  before: {"start":"20200122T120625Z","tags":["Checking timewarrior data format","test"]}
  after: 
txn:
  type: interval
  before: 
  after: {"start":"20200122T120625Z","end":"20200122T120727Z","tags":["Checking timewarrior data format","test"]}
txn:
  type: interval
  before: 
  after: {"start":"20200122T120912Z","tags":["SLRPL-975: Unable to Snapshot","earnest"]}
txn:
  type: interval
  before: {"start":"20200122T120912Z","tags":["SLRPL-975: Unable to Snapshot","earnest"]}
  after: 
txn:
  type: interval
  before: 
  after: {"start":"20200122T120912Z","end":"20200122T142822Z","tags":["SLRPL-975: Unable to Snapshot","earnest"]}
txn:
  type: interval
  before: 
  after: {"start":"20200122T174325Z","tags":["SLRPL-975: Unable to Snapshot","earnest"]}
txn:
  type: interval
  before: {"start":"20200122T174325Z","tags":["SLRPL-975: Unable to Snapshot","earnest"]}
  after: 
txn:
  type: interval
  before: 
  after: {"start":"20200122T174325Z","end":"20200122T175525Z","tags":["SLRPL-975: Unable to Snapshot","earnest"]}
txn:
  type: interval
  before: 
  after: {"start":"20200122T175532Z","tags":["Set up Profile screen model","pegasus","sn"]}
txn:
  type: interval
  before: {"start":"20200122T175532Z","tags":["Set up Profile screen model","pegasus","sn"]}
  after: 
txn:
  type: interval
  before: 
  after: {"start":"20200122T175532Z","end":"20200122T203459Z","tags":["Set up Profile screen model","pegasus","sn"]}
txn:
  type: interval
  before: 
  after: {"start":"20200122T203459Z","tags":["SLRPL-1001: Update Looker Brewer link in Analyze","earnest"]}
txn:
  type: interval
  before: {"start":"20200122T203459Z","tags":["SLRPL-1001: Update Looker Brewer link in Analyze","earnest"]}
  after: 
txn:
  type: interval
  before: 
  after: {"start":"20200122T203459Z","end":"20200123T111406Z","tags":["SLRPL-1001: Update Looker Brewer link in Analyze","earnest"]}
txn:
  type: interval
  before: 
  after: {"start":"20200123T111439Z","tags":["Align client schema w/ server schema","pegasus","sn"]}
txn:
  type: interval
  before: {"start":"20200123T111439Z","tags":["Align client schema w/ server schema","pegasus","sn"]}
  after: 
txn:
  type: interval
  before: 
  after: {"start":"20200123T111439Z","end":"20200123T154543Z","tags":["Align client schema w/ server schema","pegasus","sn"]}
txn:
  type: interval
  before: 
  after: {"start":"20200123T154543Z","tags":["SLRPL-951: Unable to snapshot","earnest"]}
txn:
  type: interval
  before: {"start":"20200123T154543Z","tags":["SLRPL-951: Unable to snapshot","earnest"]}
  after: 
txn:
  type: interval
  before: 
  after: {"start":"20200123T154543Z","end":"20200123T162719Z","tags":["SLRPL-951: Unable to snapshot","earnest"]}
txn:
  type: interval
  before: 
  after: {"start":"20200123T201354Z","tags":["SLRPL-1008: Regenerate Loan Agreement docs","earnest"]}
txn:
  type: interval
  before: {"start":"20200123T201354Z","tags":["SLRPL-1008: Regenerate Loan Agreement docs","earnest"]}
  after: 
txn:
  type: interval
  before: 
  after: {"start":"20200123T201354Z","end":"20200123T201411Z","tags":["SLRPL-1008: Regenerate Loan Agreement docs","earnest"]}
txn:
  type: interval
  before: 
  after: {"start":"20200123T201423Z","tags":["SLRPL-1008: Regenerate Loan Agreement","earnest"]}
txn:
  type: interval
  before: {"start":"20200123T201423Z","tags":["SLRPL-1008: Regenerate Loan Agreement","earnest"]}
  after: 
txn:
  type: interval
  before: 
  after: {"start":"20200123T201423Z","end":"20200123T225033Z","tags":["SLRPL-1008: Regenerate Loan Agreement","earnest"]}
txn:
  type: interval
  before: 
  after: {"start":"20200123T225033Z","tags":["Align client schema w/ server schema","pegasus","sn"]}
txn:
  type: interval
  before: {"start":"20200123T225033Z","tags":["Align client schema w/ server schema","pegasus","sn"]}
  after: 
txn:
  type: interval
  before: 
  after: {"start":"20200123T225033Z","end":"20200124T135943Z","tags":["Align client schema w/ server schema","pegasus","sn"]}
txn:
  type: interval
  before: 
  after: {"start":"20200124T153603Z","tags":["Align client schema w/ server schema","pegasus","sn"]}
txn:
  type: interval
  before: {"start":"20200124T153603Z","tags":["Align client schema w/ server schema","pegasus","sn"]}
  after: 
txn:
  type: interval
  before: 
  after: {"start":"20200124T153603Z","end":"20200124T203248Z","tags":["Align client schema w/ server schema","pegasus","sn"]}
txn:
  type: interval
  before: 
  after: {"start":"20200124T203248Z","tags":["Update pick count based on response from API","pegasus","sn"]}
txn:
  type: interval
  before: {"start":"20200124T203248Z","tags":["Update pick count based on response from API","pegasus","sn"]}
  after: 
txn:
  type: interval
  before: 
  after: {"start":"20200124T203248Z","end":"20200125T204659Z","tags":["Update pick count based on response from API","pegasus","sn"]}
txn:
  type: interval
  before: 
  after: {"start":"20200125T204659Z","tags":["Save location to state, send to API for games list","pegasus","sn"]}
txn:
  type: interval
  before: {"start":"20200125T204659Z","tags":["Save location to state, send to API for games list","pegasus","sn"]}
  after: 
txn:
  type: interval
  before: 
  after: {"start":"20200125T204659Z","end":"20200126T204228Z","tags":["Save location to state, send to API for games list","pegasus","sn"]}
txn:
  type: interval
  before: 
  after: {"start":"20200126T204248Z","tags":["Hook up avatar upload","pegasus","sn"]}
txn:
  type: interval
  before: {"start":"20200126T204248Z","tags":["Hook up avatar upload","pegasus","sn"]}
  after: 
txn:
  type: interval
  before: 
  after: {"start":"20200126T204248Z","end":"20200127T121517Z","tags":["Hook up avatar upload","pegasus","sn"]}
txn:
  type: interval
  before: 
  after: {"start":"20200127T121520Z","tags":["SLRPL-967: New Verify Tool Failed to Snapshot","earnest"]}
txn:
  type: interval
  before: {"start":"20200127T121520Z","tags":["SLRPL-967: New Verify Tool Failed to Snapshot","earnest"]}
  after: 
txn:
  type: interval
  before: 
  after: {"start":"20200127T121520Z","end":"20200127T122700Z","tags":["SLRPL-967: New Verify Tool Failed to Snapshot","earnest"]}
txn:
  type: interval
  before: 
  after: {"start":"20200127T132808Z","tags":["Get GameBoards to load","pegasus","sn"]}
txn:
  type: interval
  before: {"start":"20200127T132808Z","tags":["Get GameBoards to load","pegasus","sn"]}
  after: 
txn:
  type: interval
  before: 
  after: {"start":"20200127T132808Z","end":"20200128T131032Z","tags":["Get GameBoards to load","pegasus","sn"]}
txn:
  type: interval
  before: 
  after: {"start":"20200128T131032Z","tags":["Use actual sport name in UI","pegasus","sn"]}
txn:
  type: interval
  before: {"start":"20200128T131032Z","tags":["Use actual sport name in UI","pegasus","sn"]}
  after: 
txn:
  type: interval
  before: 
  after: {"start":"20200128T131032Z","end":"20200128T164233Z","tags":["Use actual sport name in UI","pegasus","sn"]}
txn:
  type: interval
  before: 
  after: {"start":"20200128T164306Z","tags":["Create Splunk Dashboard for IR changes","pegasus","sn"]}
txn:
  type: interval
  before: {"start":"20200128T164306Z","tags":["Create Splunk Dashboard for IR changes","pegasus","sn"]}
  after: 
txn:
  type: interval
  before: 
  after: {"start":"20200128T164306Z","end":"20200128T164339Z","tags":["Create Splunk Dashboard for IR changes","pegasus","sn"]}
txn:
  type: interval
  before: 
  after: {"start":"20200128T164413Z","tags":["SLRPL-966: Create Splunk Dashboard for IR changes","earnest"]}
txn:
  type: interval
  before: {"start":"20200128T164413Z","tags":["SLRPL-966: Create Splunk Dashboard for IR changes","earnest"]}
  after: 
txn:
  type: interval
  before: 
  after: {"start":"20200128T164413Z","end":"20200129T120229Z","tags":["SLRPL-966: Create Splunk Dashboard for IR changes","earnest"]}
txn:
  type: interval
  before: 
  after: {"start":"20200129T120229Z","tags":["Pull to refresh Event List","pegasus","sn"]}
txn:
  type: interval
  before: {"start":"20200129T120229Z","tags":["Pull to refresh Event List","pegasus","sn"]}
  after: 
txn:
  type: interval
  before: 
  after: {"start":"20200129T120229Z","end":"20200129T140545Z","tags":["Pull to refresh Event List","pegasus","sn"]}
txn:
  type: interval
  before: 
  after: {"start":"20200129T142737Z","tags":["Fix KeyboardAvoidingView","pegasus","sn"]}
txn:
  type: interval
  before: {"start":"20200129T142737Z","tags":["Fix KeyboardAvoidingView","pegasus","sn"]}
  after: 
txn:
  type: interval
  before: 
  after: {"start":"20200129T142737Z","end":"20200129T164656Z","tags":["Fix KeyboardAvoidingView","pegasus","sn"]}
txn:
  type: interval
  before: 
  after: {"start":"20200129T182211Z","tags":["SLRPL-966: Create Splunk Dashboard for IR changes","earnest"]}
txn:
  type: interval
  before: {"start":"20200129T182211Z","tags":["SLRPL-966: Create Splunk Dashboard for IR changes","earnest"]}
  after: 
txn:
  type: interval
  before: 
  after: {"start":"20200129T182211Z","end":"20200130T132331Z","tags":["SLRPL-966: Create Splunk Dashboard for IR changes","earnest"]}
txn:
  type: interval
  before: 
  after: {"start":"20200130T143842Z","tags":["Pull down to refresh gameboard data","pegasus","sn"]}
txn:
  type: interval
  before: {"start":"20200130T143842Z","tags":["Pull down to refresh gameboard data","pegasus","sn"]}
  after: 
txn:
  type: interval
  before: 
  after: {"start":"20200130T143842Z","end":"20200130T174931Z","tags":["Pull down to refresh gameboard data","pegasus","sn"]}
txn:
  type: interval
  before: 
  after: {"start":"20200130T174934Z","tags":["SLRPL-966: Create Splunk Dashboard for IR changes","earnest"]}
txn:
  type: interval
  before: {"start":"20200130T174934Z","tags":["SLRPL-966: Create Splunk Dashboard for IR changes","earnest"]}
  after: 
txn:
  type: interval
  before: 
  after: {"start":"20200130T174934Z","end":"20200131T115511Z","tags":["SLRPL-966: Create Splunk Dashboard for IR changes","earnest"]}
txn:
  type: interval
  before: 
  after: {"start":"20200131T115529Z","tags":["Separate event and gameboard loading logic","pegasus","sn"]}
txn:
  type: interval
  before: {"start":"20200131T115529Z","tags":["Separate event and gameboard loading logic","pegasus","sn"]}
  after: 
txn:
  type: interval
  before: 
  after: {"start":"20200131T115529Z","end":"20200131T133304Z","tags":["Separate event and gameboard loading logic","pegasus","sn"]}
txn:
  type: interval
  before: 
  after: {"start":"20200131T133309Z","tags":["SLRPL-966: Create Splunk Dashboard for IR changes","earnest"]}
txn:
  type: interval
  before: {"start":"20200131T133309Z","tags":["SLRPL-966: Create Splunk Dashboard for IR changes","earnest"]}
  after: 
txn:
  type: interval
  before: 
  after: {"start":"20200131T133309Z","end":"20200131T152724Z","tags":["SLRPL-966: Create Splunk Dashboard for IR changes","earnest"]}
txn:
  type: interval
  before: 
  after: {"start":"20200131T152727Z","tags":["Show unspent picks values from API","pegasus","sn"]}
txn:
  type: interval
  before: {"start":"20200131T152727Z","tags":["Show unspent picks values from API","pegasus","sn"]}
  after: 
  type: interval
  before: {"start":"20200201T050000Z","tags":["Show unspent picks values from API","pegasus","sn"]}
  after: 
txn:
  type: interval
  before: 
  after: {"start":"20200131T152727Z","end":"20200201T050000Z","tags":["Show unspent picks values from API","pegasus","sn"]}
  type: interval
  before: 
  after: {"start":"20200201T050000Z","end":"20200203T141017Z","tags":["Show unspent picks values from API","pegasus","sn"]}
txn:
  type: interval
  before: 
  after: {"start":"20200203T141021Z","tags":["SLRPL-966: Create Splunk Dashboard for IR changes","earnest"]}
txn:
  type: interval
  before: {"start":"20200203T141021Z","tags":["SLRPL-966: Create Splunk Dashboard for IR changes","earnest"]}
  after: 
txn:
  type: interval
  before: 
  after: {"start":"20200203T141021Z","end":"20200203T145319Z","tags":["SLRPL-966: Create Splunk Dashboard for IR changes","earnest"]}
txn:
  type: interval
  before: 
  after: {"start":"20200203T153918Z","tags":["Show unspent picks values from API","pegasus","sn"]}
txn:
  type: interval
  before: {"start":"20200203T153918Z","tags":["Show unspent picks values from API","pegasus","sn"]}
  after: 
txn:
  type: interval
  before: 
  after: {"start":"20200203T153918Z","end":"20200203T182255Z","tags":["Show unspent picks values from API","pegasus","sn"]}
txn:
  type: interval
  before: 
  after: {"start":"20200203T200148Z","tags":["Support multiple game boards","pegasus","sn"]}
txn:
  type: interval
  before: {"start":"20200203T200148Z","tags":["Support multiple game boards","pegasus","sn"]}
  after: 
txn:
  type: interval
  before: 
  after: {"start":"20200203T200148Z","end":"20200204T234557Z","tags":["Support multiple game boards","pegasus","sn"]}
txn:
  type: interval
  before: 
  after: {"start":"20200205T154006Z","tags":["SLRPL-966: Create Splunk Dashboard for IR changes","earnest"]}
txn:
  type: interval
  before: {"start":"20200205T154006Z","tags":["SLRPL-966: Create Splunk Dashboard for IR changes","earnest"]}
  after: 
txn:
  type: interval
  before: 
  after: {"start":"20200205T154006Z","end":"20200205T163159Z","tags":["SLRPL-966: Create Splunk Dashboard for IR changes","earnest"]}
txn:
  type: interval
  before: 
  after: {"start":"20200205T163204Z","tags":["Support multiple game boards","pegasus","sn"]}
txn:
  type: interval
  before: {"start":"20200205T163204Z","tags":["Support multiple game boards","pegasus","sn"]}
  after: 
txn:
  type: interval
  before: 
  after: {"start":"20200205T163204Z","end":"20200206T115659Z","tags":["Support multiple game boards","pegasus","sn"]}
txn:
  type: interval
  before: 
  after: {"start":"20200206T154813Z","tags":["Support multiple game boards","pegasus","sn"]}
txn:
  type: interval
  before: {"start":"20200206T154813Z","tags":["Support multiple game boards","pegasus","sn"]}
  after: 
txn:
  type: interval
  before: 
  after: {"start":"20200206T154813Z","end":"20200207T152440Z","tags":["Support multiple game boards","pegasus","sn"]}
txn:
  type: interval
  before: 
  after: {"start":"20200207T152440Z","tags":["Display game winners","pegasus","sn"]}
txn:
  type: interval
  before: {"start":"20200207T152440Z","tags":["Display game winners","pegasus","sn"]}
  after: 
txn:
  type: interval
  before: 
  after: {"start":"20200207T152440Z","end":"20200207T182950Z","tags":["Display game winners","pegasus","sn"]}
txn:
  type: interval
  before: 
  after: {"start":"20200207T182950Z","tags":["Lint project","pegasus","sn"]}
txn:
  type: interval
  before: {"start":"20200207T182950Z","tags":["Lint project","pegasus","sn"]}
  after: 
txn:
  type: interval
  before: 
  after: {"start":"20200207T182950Z","end":"20200207T195956Z","tags":["Lint project","pegasus","sn"]}
txn:
  type: interval
  before: 
  after: {"start":"20200207T211355Z","tags":["Display game winners","pegasus","sn"]}
txn:
  type: interval
  before: {"start":"20200207T211355Z","tags":["Display game winners","pegasus","sn"]}
  after: 
txn:
  type: interval
  before: 
  after: {"start":"20200207T211355Z","end":"20200210T115039Z","tags":["Display game winners","pegasus","sn"]}
txn:
  type: interval
  before: 
  after: {"start":"20200210T115039Z","tags":["Move length/rowWidth from GameBoard to EventSettings","pegasus","sn"]}
txn:
  type: interval
  before: {"start":"20200210T115039Z","tags":["Move length/rowWidth from GameBoard to EventSettings","pegasus","sn"]}
  after: 
txn:
  type: interval
  before: 
  after: {"start":"20200210T115039Z","end":"20200210T145258Z","tags":["Move length/rowWidth from GameBoard to EventSettings","pegasus","sn"]}
txn:
  type: interval
  before: 
  after: {"start":"20200210T145258Z","tags":["Display game winners","pegasus","sn"]}
txn:
  type: interval
  before: {"start":"20200210T145258Z","tags":["Display game winners","pegasus","sn"]}
  after: 
txn:
  type: interval
  before: 
  after: {"start":"20200210T145258Z","end":"20200210T152525Z","tags":["Display game winners","pegasus","sn"]}
txn:
  type: interval
  before: 
  after: {"start":"20200210T205707Z","tags":["Display game winners","pegasus","sn"]}
txn:
  type: interval
  before: {"start":"20200210T205707Z","tags":["Display game winners","pegasus","sn"]}
  after: 
txn:
  type: interval
  before: 
  after: {"start":"20200210T205707Z","end":"20200211T192703Z","tags":["Display game winners","pegasus","sn"]}
txn:
  type: interval
  before: 
  after: {"start":"20200211T192703Z","tags":["SLRPL-815: Rename partnerRedirect -> internalPartnerRedirect","earnest"]}
txn:
  type: interval
  before: {"start":"20200211T192703Z","tags":["SLRPL-815: Rename partnerRedirect -> internalPartnerRedirect","earnest"]}
  after: 
txn:
  type: interval
  before: 
  after: {"start":"20200211T192703Z","end":"20200211T202030Z","tags":["SLRPL-815: Rename partnerRedirect -> internalPartnerRedirect","earnest"]}
txn:
  type: interval
  before: 
  after: {"start":"20200211T202035Z","tags":["Display game winners","pegasus","sn"]}
txn:
  type: interval
  before: {"start":"20200211T202035Z","tags":["Display game winners","pegasus","sn"]}
  after: 
txn:
  type: interval
  before: 
  after: {"start":"20200211T202035Z","end":"20200212T154919Z","tags":["Display game winners","pegasus","sn"]}
txn:
  type: interval
  before: 
  after: {"start":"20200212T154919Z","tags":["Various code clean-up","pegasus","sn"]}
txn:
  type: interval
  before: {"start":"20200212T154919Z","tags":["Various code clean-up","pegasus","sn"]}
  after: 
txn:
  type: interval
  before: 
  after: {"start":"20200212T154919Z","end":"20200212T170103Z","tags":["Various code clean-up","pegasus","sn"]}
txn:
  type: interval
  before: 
  after: {"start":"20200212T170112Z","tags":["SLRPL-815: Rename partnerRedirect -> internalPartnerRedirect","earnest"]}
txn:
  type: interval
  before: {"start":"20200212T170112Z","tags":["SLRPL-815: Rename partnerRedirect -> internalPartnerRedirect","earnest"]}
  after: 
txn:
  type: interval
  before: 
  after: {"start":"20200212T170112Z","end":"20200213T124959Z","tags":["SLRPL-815: Rename partnerRedirect -> internalPartnerRedirect","earnest"]}
txn:
  type: interval
  before: 
  after: {"start":"20200213T125347Z","tags":["SLRPL-1101: XSS Vulnerability","earnest"]}
txn:
  type: interval
  before: {"start":"20200213T125347Z","tags":["SLRPL-1101: XSS Vulnerability","earnest"]}
  after: 
txn:
  type: interval
  before: 
  after: {"start":"20200213T125347Z","end":"20200213T145104Z","tags":["SLRPL-1101: XSS Vulnerability","earnest"]}
txn:
  type: interval
  before: 
  after: {"start":"20200213T145104Z","tags":["Bugfixes & stuff for MVP","pegasus","sn"]}
txn:
  type: interval
  before: {"start":"20200213T145104Z","tags":["Bugfixes & stuff for MVP","pegasus","sn"]}
  after: 
txn:
  type: interval
  before: 
  after: {"start":"20200213T145104Z","end":"20200213T180816Z","tags":["Bugfixes & stuff for MVP","pegasus","sn"]}
txn:
  type: interval
  before: 
  after: {"start":"20200213T180844Z","tags":["Show placeholders for un-won rounds","pegasus","sn"]}
txn:
  type: interval
  before: {"start":"20200213T180844Z","tags":["Show placeholders for un-won rounds","pegasus","sn"]}
  after: 
txn:
  type: interval
  before: 
  after: {"start":"20200213T180844Z","end":"20200217T141000Z","tags":["Show placeholders for un-won rounds","pegasus","sn"]}
txn:
  type: interval
  before: 
  after: {"start":"20200217T141000Z","tags":["Subscriptions/live updates","pegasus","sn"]}
txn:
  type: interval
  before: {"start":"20200217T141000Z","tags":["Subscriptions/live updates","pegasus","sn"]}
  after: 
txn:
  type: interval
  before: 
  after: {"start":"20200217T141000Z","end":"20200218T131439Z","tags":["Subscriptions/live updates","pegasus","sn"]}
txn:
  type: interval
  before: 
  after: {"start":"20200218T131439Z","tags":["Implement FastImage for better image caching","pegasus","sn"]}
txn:
  type: interval
  before: {"start":"20200218T131439Z","tags":["Implement FastImage for better image caching","pegasus","sn"]}
  after: 
txn:
  type: interval
  before: 
  after: {"start":"20200218T131439Z","end":"20200219T115439Z","tags":["Implement FastImage for better image caching","pegasus","sn"]}
txn:
  type: interval
  before: 
  after: {"start":"20200219T115439Z","tags":["ESQs: New Verify Issues","earnest"]}
txn:
  type: interval
  before: {"start":"20200219T115439Z","tags":["ESQs: New Verify Issues","earnest"]}
  after: 
txn:
  type: interval
  before: 
  after: {"start":"20200219T115439Z","end":"20200219T144204Z","tags":["ESQs: New Verify Issues","earnest"]}
txn:
  type: interval
  before: 
  after: {"start":"20200219T144204Z","tags":["Push notifications","pegasus","sn"]}
txn:
  type: interval
  before: {"start":"20200219T144204Z","tags":["Push notifications","pegasus","sn"]}
  after: 
txn:
  type: interval
  before: 
  after: {"start":"20200219T144204Z","end":"20200219T154438Z","tags":["Push notifications","pegasus","sn"]}
txn:
  type: interval
  before: 
  after: {"start":"20200219T154447Z","tags":["Push notifications","pegasus","sn"]}
txn:
  type: interval
  before: {"start":"20200219T154447Z","tags":["Push notifications","pegasus","sn"]}
  after: 
txn:
  type: interval
  before: 
  after: {"start":"20200219T154447Z","end":"20200219T174435Z","tags":["Push notifications","pegasus","sn"]}
txn:
  type: interval
  before: 
  after: {"start":"20200219T174443Z","tags":["ESQs: New Verify Issues","earnest"]}
txn:
  type: interval
  before: {"start":"20200219T174443Z","tags":["ESQs: New Verify Issues","earnest"]}
  after: 
txn:
  type: interval
  before: 
  after: {"start":"20200219T174443Z","end":"20200219T211154Z","tags":["ESQs: New Verify Issues","earnest"]}
txn:
  type: interval
  before: 
  after: {"start":"20200219T211154Z","tags":["Try out TW syncing","test"]}
txn:
  type: interval
  before: {"start":"20200219T211154Z","tags":["Try out TW syncing","test"]}
  after: 
txn:
  type: interval
  before: 
  after: {"start":"20200219T211154Z","end":"20200219T211201Z","tags":["Try out TW syncing","test"]}
